{
  "MS": {
    "MS01": "A12345678F001",
    "MS02": "1",
    "MS03": "BIG5"
  },
  "ASSETs": {
    "PA3": [
      {
        "PA341": "1",
        "PA342": "1",
        "PA343": "0",
        "PA3C1": "6",
        "PA3C2": "01",
        "PA3C3": "05",
        "PA3C4": "05",
        "PA3C5": "0000",
        "PA3C6": "0000001",
        "PA3P3": "訂訂",
        "PA3PS": "AA",
        "PA3MK": "AAAA",
        "PA3BD": "20201015",
        "PA3PY": "24",
        "PA3LOC": "05",
        "PA3LOCN": "測試單位",
        "PA3OUT": "05",
        "PA3OUTN": "測試單位",
        "PA3OU": "011",
        "PA3OUN": "測試人員",
        "PA3UUT": "05",
        "PA3UUTN": "測試單位",
        "PA3UR": "011",
        "PA3URN": "測試人員",
        "PA308": "Y",
        "PA3DEL": "N",
        "PA3PRN": "N"
      },
      {
        "PA341": "1",
        "PA342": "1",
        "PA343": "0",
        "PA3C1": "6",
        "PA3C2": "01",
        "PA3C3": "05",
        "PA3C4": "05",
        "PA3C5": "0000",
        "PA3C6": "0000002",
        "PA3P3": "訂訂",
        "PA3PS": "AA",
        "PA3MK": "AAAA",
        "PA3BD": "20201015",
        "PA3PY": "24",
        "PA3LOC": "12345",
        "PA3LOCN": "總務室",
        "PA3OUT": "12345",
        "PA3OUTN": "總務室",
        "PA3OU": "113",
        "PA3OUN": "測試人員二",
        "PA3UUT": "12345",
        "PA3UUTN": "總務室",
        "PA3UR": "113",
        "PA3URN": "測試人員二",
        "PA308": "Y",
        "PA3DEL": "N",
        "PA3PRN": "N"
      },
      {
        "PA341": "1",
        "PA342": "1",
        "PA343": "0",
        "PA3C1": "6",
        "PA3C2": "01",
        "PA3C3": "05",
        "PA3C4": "05",
        "PA3C5": "0000",
        "PA3C6": "0000003",
        "PA3P3": "訂訂",
        "PA3PS": "AA",
        "PA3MK": "AAAA",
        "PA3BD": "20201015",
        "PA3PY": "24",
        "PA3LOC": "05",
        "PA3LOCN": "測試單位",
        "PA3OUT": "05",
        "PA3OUTN": "測試單位",
        "PA3OU": "011",
        "PA3OUN": "測試人員",
        "PA3UUT": "05",
        "PA3UUTN": "測試單位",
        "PA3UR": "011",
        "PA3URN": "測試人員",
        "PA308": "Y",
        "PA3DEL": "N",
        "PA3PRN": "N"
      },
      {
        "PA341": "1",
        "PA342": "1",
        "PA343": "0",
        "PA3C1": "6",
        "PA3C2": "01",
        "PA3C3": "05",
        "PA3C4": "05",
        "PA3C5": "0000",
        "PA3C6": "0000004",
        "PA3P3": "釘書機的釘書機釘書機釘書機",
        "PA3PS": "aaaaaaaaaaaaaaaaaaaaa",
        "PA3MK": "aaaaaaaaaaaaaaaaaaaaaaaaaaa",
        "PA3BD": "20201016",
        "PA3PY": "24",
        "PA3LOC": "05",
        "PA3LOCN": "測試單位",
        "PA3OUT": "05",
        "PA3OUTN": "測試單位",
        "PA3OU": "011",
        "PA3OUN": "測試人員",
        "PA3UUT": "05",
        "PA3UUTN": "測試單位",
        "PA3UR": "011",
        "PA3URN": "測試人員",
        "PA308": "Y",
        "PA3DEL": "N",
        "PA3PRN": "N"
      },
      {
        "PA341": "1",
        "PA342": "1",
        "PA343": "0",
        "PA3C1": "6",
        "PA3C2": "01",
        "PA3C3": "05",
        "PA3C4": "05",
        "PA3C5": "0000",
        "PA3C6": "0000005",
        "PA3P3": "釘書機的釘書機釘書機釘書機",
        "PA3PS": "aaaaaaaaaaaaaaaaaaaaa",
        "PA3MK": "aaaaaaaaaaaaaaaaaaaaaaaaaaa",
        "PA3BD": "20201016",
        "PA3PY": "24",
        "PA3LOC": "05",
        "PA3LOCN": "測試單位",
        "PA3OUT": "05",
        "PA3OUTN": "測試單位",
        "PA3OU": "011",
        "PA3OUN": "測試人員",
        "PA3UUT": "05",
        "PA3UUTN": "測試單位",
        "PA3UR": "011",
        "PA3URN": "測試人員",
        "PA308": "Y",
        "PA3DEL": "N",
        "PA3PRN": "N"
      },
      {
        "PA341": "1",
        "PA342": "1",
        "PA343": "0",
        "PA3C1": "6",
        "PA3C2": "01",
        "PA3C3": "05",
        "PA3C4": "05",
        "PA3C5": "0000",
        "PA3C6": "0000006",
        "PA3P3": "釘書機的釘書機釘書機釘書機",
        "PA3PS": "aaaaaaaaaaaaaaaaaaaaa",
        "PA3MK": "aaaaaaaaaaaaaaaaaaaaaaaaaaa",
        "PA3BD": "20201016",
        "PA3PY": "24",
        "PA3LOC": "05",
        "PA3LOCN": "測試單位",
        "PA3OUT": "05",
        "PA3OUTN": "測試單位",
        "PA3OU": "011",
        "PA3OUN": "測試人員",
        "PA3UUT": "05",
        "PA3UUTN": "測試單位",
        "PA3UR": "011",
        "PA3URN": "測試人員",
        "PA308": "Y",
        "PA3DEL": "N",
        "PA3PRN": "N"
      },
      {
        "PA341": "1",
        "PA342": "1",
        "PA343": "0",
        "PA3C1": "6",
        "PA3C2": "01",
        "PA3C3": "05",
        "PA3C4": "05",
        "PA3C5": "0000",
        "PA3C6": "0000007",
        "PA3P3": "釘書機的釘書機釘書機釘書機",
        "PA3PS": "aaaaaaaaaaaaaaaaaaaaa",
        "PA3MK": "aaaaaaaaaaaaaaaaaaaaaaaaaaa",
        "PA3BD": "20201016",
        "PA3PY": "24",
        "PA3LOC": "05",
        "PA3LOCN": "測試單位",
        "PA3OUT": "05",
        "PA3OUTN": "測試單位",
        "PA3OU": "011",
        "PA3OUN": "測試人員",
        "PA3UUT": "05",
        "PA3UUTN": "測試單位",
        "PA3UR": "011",
        "PA3URN": "測試人員",
        "PA308": "Y",
        "PA3DEL": "N",
        "PA3PRN": "N"
      },
      {
        "PA341": "1",
        "PA342": "1",
        "PA343": "0",
        "PA3C1": "6",
        "PA3C2": "01",
        "PA3C3": "05",
        "PA3C4": "05",
        "PA3C5": "0000",
        "PA3C6": "0000008",
        "PA3P3": "釘書機的釘書機釘書機釘書機",
        "PA3PS": "aaaaaaaaaaaaaaaaaaaaa",
        "PA3MK": "aaaaaaaaaaaaaaaaaaaaaaaaaaa",
        "PA3BD": "20201016",
        "PA3PY": "24",
        "PA3LOC": "05",
        "PA3LOCN": "測試單位",
        "PA3OUT": "05",
        "PA3OUTN": "測試單位",
        "PA3OU": "011",
        "PA3OUN": "測試人員",
        "PA3UUT": "05",
        "PA3UUTN": "測試單位",
        "PA3UR": "011",
        "PA3URN": "測試人員",
        "PA308": "Y",
        "PA3DEL": "N",
        "PA3PRN": "N"
      },
      {
        "PA341": "1",
        "PA342": "1",
        "PA343": "0",
        "PA3C1": "5",
        "PA3C2": "01",
        "PA3C3": "01",
        "PA3C4": "01",
        "PA3C5": "0001",
        "PA3C6": "0000001",
        "PA3P3": "釘書機的釘書機",
        "PA3PS": "CCCCCCCCCCCCCCCCCCCCCCCCCCCCCCCCCCCCCCCCCCCCCCC",
        "PA3MK": "CCCCCCCCCCCCCCCCCCCCCCCCCCCCCCCCCCCCCCCCCCCCCCCCCCCC",
        "PA3BD": "20201016",
        "PA3PY": "10",
        "PA3LOC": "05",
        "PA3LOCN": "測試單位",
        "PA3OUT": "05",
        "PA3OUTN": "測試單位",
        "PA3OU": "113",
        "PA3OUN": "測試人員二",
        "PA3UUT": "05",
        "PA3UUTN": "測試單位",
        "PA3UR": "113",
        "PA3URN": "測試人員二",
        "PA308": "Y",
        "PA3DEL": "N",
        "PA3PRN": "N"
      },
      {
        "PA341": "1",
        "PA342": "1",
        "PA343": "0",
        "PA3C1": "5",
        "PA3C2": "01",
        "PA3C3": "01",
        "PA3C4": "01",
        "PA3C5": "0001",
        "PA3C6": "0000002",
        "PA3P3": "釘書機的釘書機",
        "PA3PS": "CCCCCCCCCCCCCCCCCCCCCCCCCCCCCCCCCCCCCCCCCCCCCCC",
        "PA3MK": "CCCCCCCCCCCCCCCCCCCCCCCCCCCCCCCCCCCCCCCCCCCCCCCCCCCC",
        "PA3BD": "20201016",
        "PA3PY": "10",
        "PA3LOC": "05",
        "PA3LOCN": "測試單位",
        "PA3OUT": "05",
        "PA3OUTN": "測試單位",
        "PA3OU": "113",
        "PA3OUN": "測試人員二",
        "PA3UUT": "05",
        "PA3UUTN": "測試單位",
        "PA3UR": "113",
        "PA3URN": "測試人員二",
        "PA308": "Y",
        "PA3DEL": "N",
        "PA3PRN": "N"
      },
      {
        "PA341": "1",
        "PA342": "1",
        "PA343": "0",
        "PA3C1": "5",
        "PA3C2": "01",
        "PA3C3": "01",
        "PA3C4": "01",
        "PA3C5": "0001",
        "PA3C6": "0000003",
        "PA3P3": "釘書機的釘書機",
        "PA3PS": "CCCCCCCCCCCCCCCCCCCCCCCCCCCCCCCCCCCCCCCCCCCCCCC",
        "PA3MK": "CCCCCCCCCCCCCCCCCCCCCCCCCCCCCCCCCCCCCCCCCCCCCCCCCCCC",
        "PA3BD": "20201016",
        "PA3PY": "10",
        "PA3LOC": "05",
        "PA3LOCN": "測試單位",
        "PA3OUT": "05",
        "PA3OUTN": "測試單位",
        "PA3OU": "113",
        "PA3OUN": "測試人員二",
        "PA3UUT": "05",
        "PA3UUTN": "測試單位",
        "PA3UR": "113",
        "PA3URN": "測試人員二",
        "PA308": "Y",
        "PA3DEL": "N",
        "PA3PRN": "N"
      },
      {
        "PA341": "1",
        "PA342": "1",
        "PA343": "0",
        "PA3C1": "5",
        "PA3C2": "01",
        "PA3C3": "01",
        "PA3C4": "01",
        "PA3C5": "0001",
        "PA3C6": "0000004",
        "PA3P3": "釘書機的釘書機",
        "PA3PS": "CCCCCCCCCCCCCCCCCCCCCCCCCCCCCCCCCCCCCCCCCCCCCCC",
        "PA3MK": "CCCCCCCCCCCCCCCCCCCCCCCCCCCCCCCCCCCCCCCCCCCCCCCCCCCC",
        "PA3BD": "20201016",
        "PA3PY": "10",
        "PA3LOC": "05",
        "PA3LOCN": "測試單位",
        "PA3OUT": "05",
        "PA3OUTN": "測試單位",
        "PA3OU": "113",
        "PA3OUN": "測試人員二",
        "PA3UUT": "05",
        "PA3UUTN": "測試單位",
        "PA3UR": "113",
        "PA3URN": "測試人員二",
        "PA308": "Y",
        "PA3DEL": "N",
        "PA3PRN": "N"
      },
      {
        "PA341": "1",
        "PA342": "1",
        "PA343": "0",
        "PA3C1": "5",
        "PA3C2": "01",
        "PA3C3": "01",
        "PA3C4": "01",
        "PA3C5": "0001",
        "PA3C6": "0000005",
        "PA3P3": "釘書機的釘書機",
        "PA3PS": "CCCCCCCCCCCCCCCCCCCCCCCCCCCCCCCCCCCCCCCCCCCCCCC",
        "PA3MK": "CCCCCCCCCCCCCCCCCCCCCCCCCCCCCCCCCCCCCCCCCCCCCCCCCCCC",
        "PA3BD": "20201016",
        "PA3PY": "10",
        "PA3LOC": "05",
        "PA3LOCN": "測試單位",
        "PA3OUT": "05",
        "PA3OUTN": "測試單位",
        "PA3OU": "113",
        "PA3OUN": "測試人員二",
        "PA3UUT": "05",
        "PA3UUTN": "測試單位",
        "PA3UR": "113",
        "PA3URN": "測試人員二",
        "PA308": "Y",
        "PA3DEL": "N",
        "PA3PRN": "N"
      },
      {
        "PA341": "1",
        "PA342": "1",
        "PA343": "0",
        "PA3C1": "5",
        "PA3C2": "01",
        "PA3C3": "01",
        "PA3C4": "01",
        "PA3C5": "0001",
        "PA3C6": "0000006",
        "PA3P3": "釘書機的釘書機",
        "PA3PS": "CCCCCCCCCCCCCCCCCCCCCCCCCCCCCCCCCCCCCCCCCCCCCCC",
        "PA3MK": "CCCCCCCCCCCCCCCCCCCCCCCCCCCCCCCCCCCCCCCCCCCCCCCCCCCC",
        "PA3BD": "20201016",
        "PA3PY": "10",
        "PA3LOC": "05",
        "PA3LOCN": "測試單位",
        "PA3OUT": "05",
        "PA3OUTN": "測試單位",
        "PA3OU": "113",
        "PA3OUN": "測試人員二",
        "PA3UUT": "05",
        "PA3UUTN": "測試單位",
        "PA3UR": "113",
        "PA3URN": "測試人員二",
        "PA308": "Y",
        "PA3DEL": "N",
        "PA3PRN": "N"
      },
      {
        "PA341": "1",
        "PA342": "1",
        "PA343": "0",
        "PA3C1": "5",
        "PA3C2": "01",
        "PA3C3": "01",
        "PA3C4": "01",
        "PA3C5": "0001",
        "PA3C6": "0000007",
        "PA3P3": "釘書機的釘書機",
        "PA3PS": "CCCCCCCCCCCCCCCCCCCCCCCCCCCCCCCCCCCCCCCCCCCCCCC",
        "PA3MK": "CCCCCCCCCCCCCCCCCCCCCCCCCCCCCCCCCCCCCCCCCCCCCCCCCCCC",
        "PA3BD": "20201016",
        "PA3PY": "10",
        "PA3LOC": "05",
        "PA3LOCN": "測試單位",
        "PA3OUT": "05",
        "PA3OUTN": "測試單位",
        "PA3OU": "113",
        "PA3OUN": "測試人員二",
        "PA3UUT": "05",
        "PA3UUTN": "測試單位",
        "PA3UR": "113",
        "PA3URN": "測試人員二",
        "PA308": "Y",
        "PA3DEL": "N",
        "PA3PRN": "N"
      },
      {
        "PA341": "1",
        "PA342": "1",
        "PA343": "0",
        "PA3C1": "5",
        "PA3C2": "01",
        "PA3C3": "01",
        "PA3C4": "01",
        "PA3C5": "0001",
        "PA3C6": "0000008",
        "PA3P3": "釘書機的釘書機",
        "PA3PS": "CCCCCCCCCCCCCCCCCCCCCCCCCCCCCCCCCCCCCCCCCCCCCCC",
        "PA3MK": "CCCCCCCCCCCCCCCCCCCCCCCCCCCCCCCCCCCCCCCCCCCCCCCCCCCC",
        "PA3BD": "20201016",
        "PA3PY": "10",
        "PA3LOC": "05",
        "PA3LOCN": "測試單位",
        "PA3OUT": "05",
        "PA3OUTN": "測試單位",
        "PA3OU": "113",
        "PA3OUN": "測試人員二",
        "PA3UUT": "05",
        "PA3UUTN": "測試單位",
        "PA3UR": "113",
        "PA3URN": "測試人員二",
        "PA308": "N",
        "PA3DEL": "N",
        "PA3PRN": "N"
      },
      {
        "PA341": "1",
        "PA342": "1",
        "PA343": "0",
        "PA3C1": "5",
        "PA3C2": "01",
        "PA3C3": "01",
        "PA3C4": "01",
        "PA3C5": "0001",
        "PA3C6": "0000009",
        "PA3P3": "釘書機的釘書機",
        "PA3PS": "CCCCCCCCCCCCCCCCCCCCCCCCCCCCCCCCCCCCCCCCCCCCCCC",
        "PA3MK": "CCCCCCCCCCCCCCCCCCCCCCCCCCCCCCCCCCCCCCCCCCCCCCCCCCCC",
        "PA3BD": "20201016",
        "PA3PY": "10",
        "PA3LOC": "05",
        "PA3LOCN": "測試單位",
        "PA3OUT": "05",
        "PA3OUTN": "測試單位",
        "PA3OU": "113",
        "PA3OUN": "測試人員二",
        "PA3UUT": "05",
        "PA3UUTN": "測試單位",
        "PA3UR": "113",
        "PA3URN": "測試人員二",
        "PA308": "N",
        "PA3DEL": "N",
        "PA3PRN": "N"
      },
      {
        "PA341": "1",
        "PA342": "1",
        "PA343": "0",
        "PA3C1": "5",
        "PA3C2": "01",
        "PA3C3": "01",
        "PA3C4": "01",
        "PA3C5": "0001",
        "PA3C6": "0000010",
        "PA3P3": "釘書機的釘書機",
        "PA3PS": "CCCCCCCCCCCCCCCCCCCCCCCCCCCCCCCCCCCCCCCCCCCCCCC",
        "PA3MK": "CCCCCCCCCCCCCCCCCCCCCCCCCCCCCCCCCCCCCCCCCCCCCCCCCCCC",
        "PA3BD": "20201016",
        "PA3PY": "10",
        "PA3LOC": "05",
        "PA3LOCN": "測試單位",
        "PA3OUT": "05",
        "PA3OUTN": "測試單位",
        "PA3OU": "113",
        "PA3OUN": "測試人員二",
        "PA3UUT": "05",
        "PA3UUTN": "測試單位",
        "PA3UR": "113",
        "PA3URN": "測試人員二",
        "PA308": "N",
        "PA3DEL": "N",
        "PA3PRN": "N"
      },
      {
        "PA341": "1",
        "PA342": "1",
        "PA343": "0",
        "PA3C1": "5",
        "PA3C2": "01",
        "PA3C3": "01",
        "PA3C4": "01",
        "PA3C5": "0001",
        "PA3C6": "0000011",
        "PA3P3": "釘書機的釘書機",
        "PA3PS": "CCCCCCCCCCCCCCCCCCCCCCCCCCCCCCCCCCCCCCCCCCCCCCC",
        "PA3MK": "CCCCCCCCCCCCCCCCCCCCCCCCCCCCCCCCCCCCCCCCCCCCCCCCCCCC",
        "PA3BD": "20201016",
        "PA3PY": "10",
        "PA3LOC": "05",
        "PA3LOCN": "測試單位",
        "PA3OUT": "05",
        "PA3OUTN": "測試單位",
        "PA3OU": "113",
        "PA3OUN": "測試人員二",
        "PA3UUT": "05",
        "PA3UUTN": "測試單位",
        "PA3UR": "113",
        "PA3URN": "測試人員二",
        "PA308": "N",
        "PA3DEL": "N",
        "PA3PRN": "N"
      },
      {
        "PA341": "1",
        "PA342": "1",
        "PA343": "0",
        "PA3C1": "5",
        "PA3C2": "01",
        "PA3C3": "01",
        "PA3C4": "01",
        "PA3C5": "0001",
        "PA3C6": "0000012",
        "PA3P3": "釘書機的釘書機",
        "PA3PS": "CCCCCCCCCCCCCCCCCCCCCCCCCCCCCCCCCCCCCCCCCCCCCCC",
        "PA3MK": "CCCCCCCCCCCCCCCCCCCCCCCCCCCCCCCCCCCCCCCCCCCCCCCCCCCC",
        "PA3BD": "20201016",
        "PA3PY": "10",
        "PA3LOC": "05",
        "PA3LOCN": "測試單位",
        "PA3OUT": "05",
        "PA3OUTN": "測試單位",
        "PA3OU": "113",
        "PA3OUN": "測試人員二",
        "PA3UUT": "05",
        "PA3UUTN": "測試單位",
        "PA3UR": "113",
        "PA3URN": "測試人員二",
        "PA308": "N",
        "PA3DEL": "N",
        "PA3PRN": "N"
      },
      {
        "PA341": "1",
        "PA342": "1",
        "PA343": "0",
        "PA3C1": "5",
        "PA3C2": "01",
        "PA3C3": "01",
        "PA3C4": "01",
        "PA3C5": "0001",
        "PA3C6": "0000013",
        "PA3P3": "釘書機的釘書機",
        "PA3PS": "CCCCCCCCCCCCCCCCCCCCCCCCCCCCCCCCCCCCCCCCCCCCCCC",
        "PA3MK": "CCCCCCCCCCCCCCCCCCCCCCCCCCCCCCCCCCCCCCCCCCCCCCCCCCCC",
        "PA3BD": "20201016",
        "PA3PY": "10",
        "PA3LOC": "05",
        "PA3LOCN": "測試單位",
        "PA3OUT": "05",
        "PA3OUTN": "測試單位",
        "PA3OU": "113",
        "PA3OUN": "測試人員二",
        "PA3UUT": "05",
        "PA3UUTN": "測試單位",
        "PA3UR": "113",
        "PA3URN": "測試人員二",
        "PA308": "N",
        "PA3DEL": "N",
        "PA3PRN": "N"
      },
      {
        "PA341": "1",
        "PA342": "1",
        "PA343": "0",
        "PA3C1": "5",
        "PA3C2": "01",
        "PA3C3": "01",
        "PA3C4": "01",
        "PA3C5": "0001",
        "PA3C6": "0000014",
        "PA3P3": "釘書機的釘書機",
        "PA3PS": "CCCCCCCCCCCCCCCCCCCCCCCCCCCCCCCCCCCCCCCCCCCCCCC",
        "PA3MK": "CCCCCCCCCCCCCCCCCCCCCCCCCCCCCCCCCCCCCCCCCCCCCCCCCCCC",
        "PA3BD": "20201016",
        "PA3PY": "10",
        "PA3LOC": "05",
        "PA3LOCN": "測試單位",
        "PA3OUT": "05",
        "PA3OUTN": "測試單位",
        "PA3OU": "113",
        "PA3OUN": "測試人員二",
        "PA3UUT": "05",
        "PA3UUTN": "測試單位",
        "PA3UR": "113",
        "PA3URN": "測試人員二",
        "PA308": "N",
        "PA3DEL": "N",
        "PA3PRN": "N"
      },
      {
        "PA341": "1",
        "PA342": "1",
        "PA343": "0",
        "PA3C1": "5",
        "PA3C2": "01",
        "PA3C3": "01",
        "PA3C4": "01",
        "PA3C5": "0001",
        "PA3C6": "0000015",
        "PA3P3": "釘書機的釘書機",
        "PA3PS": "CCCCCCCCCCCCCCCCCCCCCCCCCCCCCCCCCCCCCCCCCCCCCCC",
        "PA3MK": "CCCCCCCCCCCCCCCCCCCCCCCCCCCCCCCCCCCCCCCCCCCCCCCCCCCC",
        "PA3BD": "20201016",
        "PA3PY": "10",
        "PA3LOC": "05",
        "PA3LOCN": "測試單位",
        "PA3OUT": "05",
        "PA3OUTN": "測試單位",
        "PA3OU": "113",
        "PA3OUN": "測試人員二",
        "PA3UUT": "05",
        "PA3UUTN": "測試單位",
        "PA3UR": "113",
        "PA3URN": "測試人員二",
        "PA308": "N",
        "PA3DEL": "N",
        "PA3PRN": "N"
      },
      {
        "PA341": "1",
        "PA342": "1",
        "PA343": "0",
        "PA3C1": "5",
        "PA3C2": "01",
        "PA3C3": "01",
        "PA3C4": "01",
        "PA3C5": "0001",
        "PA3C6": "0000016",
        "PA3P3": "釘書機的釘書機",
        "PA3PS": "CCCCCCCCCCCCCCCCCCCCCCCCCCCCCCCCCCCCCCCCCCCCCCC",
        "PA3MK": "CCCCCCCCCCCCCCCCCCCCCCCCCCCCCCCCCCCCCCCCCCCCCCCCCCCC",
        "PA3BD": "20201016",
        "PA3PY": "10",
        "PA3LOC": "05",
        "PA3LOCN": "測試單位",
        "PA3OUT": "05",
        "PA3OUTN": "測試單位",
        "PA3OU": "113",
        "PA3OUN": "測試人員二",
        "PA3UUT": "05",
        "PA3UUTN": "測試單位",
        "PA3UR": "113",
        "PA3URN": "測試人員二",
        "PA308": "N",
        "PA3DEL": "N",
        "PA3PRN": "N"
      },
      {
        "PA341": "1",
        "PA342": "1",
        "PA343": "0",
        "PA3C1": "5",
        "PA3C2": "01",
        "PA3C3": "01",
        "PA3C4": "01",
        "PA3C5": "0001",
        "PA3C6": "0000017",
        "PA3P3": "釘書機的釘書機",
        "PA3PS": "CCCCCCCCCCCCCCCCCCCCCCCCCCCCCCCCCCCCCCCCCCCCCCC",
        "PA3MK": "CCCCCCCCCCCCCCCCCCCCCCCCCCCCCCCCCCCCCCCCCCCCCCCCCCCC",
        "PA3BD": "20201016",
        "PA3PY": "10",
        "PA3LOC": "05",
        "PA3LOCN": "測試單位",
        "PA3OUT": "05",
        "PA3OUTN": "測試單位",
        "PA3OU": "113",
        "PA3OUN": "測試人員二",
        "PA3UUT": "05",
        "PA3UUTN": "測試單位",
        "PA3UR": "113",
        "PA3URN": "測試人員二",
        "PA308": "N",
        "PA3DEL": "N",
        "PA3PRN": "N"
      },
      {
        "PA341": "1",
        "PA342": "1",
        "PA343": "0",
        "PA3C1": "5",
        "PA3C2": "01",
        "PA3C3": "01",
        "PA3C4": "01",
        "PA3C5": "0001",
        "PA3C6": "0000018",
        "PA3P3": "釘書機的釘書機",
        "PA3PS": "CCCCCCCCCCCCCCCCCCCCCCCCCCCCCCCCCCCCCCCCCCCCCCC",
        "PA3MK": "CCCCCCCCCCCCCCCCCCCCCCCCCCCCCCCCCCCCCCCCCCCCCCCCCCCC",
        "PA3BD": "20201016",
        "PA3PY": "10",
        "PA3LOC": "05",
        "PA3LOCN": "測試單位",
        "PA3OUT": "05",
        "PA3OUTN": "測試單位",
        "PA3OU": "113",
        "PA3OUN": "測試人員二",
        "PA3UUT": "05",
        "PA3UUTN": "測試單位",
        "PA3UR": "113",
        "PA3URN": "測試人員二",
        "PA308": "N",
        "PA3DEL": "N",
        "PA3PRN": "N"
      },
      {
        "PA341": "1",
        "PA342": "1",
        "PA343": "0",
        "PA3C1": "5",
        "PA3C2": "01",
        "PA3C3": "01",
        "PA3C4": "01",
        "PA3C5": "0001",
        "PA3C6": "0000019",
        "PA3P3": "釘書機的釘書機",
        "PA3PS": "CCCCCCCCCCCCCCCCCCCCCCCCCCCCCCCCCCCCCCCCCCCCCCC",
        "PA3MK": "CCCCCCCCCCCCCCCCCCCCCCCCCCCCCCCCCCCCCCCCCCCCCCCCCCCC",
        "PA3BD": "20201016",
        "PA3PY": "10",
        "PA3LOC": "05",
        "PA3LOCN": "測試單位",
        "PA3OUT": "05",
        "PA3OUTN": "測試單位",
        "PA3OU": "113",
        "PA3OUN": "測試人員二",
        "PA3UUT": "05",
        "PA3UUTN": "測試單位",
        "PA3UR": "113",
        "PA3URN": "測試人員二",
        "PA308": "N",
        "PA3DEL": "N",
        "PA3PRN": "N"
      },
      {
        "PA341": "1",
        "PA342": "1",
        "PA343": "0",
        "PA3C1": "5",
        "PA3C2": "01",
        "PA3C3": "01",
        "PA3C4": "01",
        "PA3C5": "0001",
        "PA3C6": "0000020",
        "PA3P3": "釘書機的釘書機",
        "PA3PS": "一二三四五六七八九十一二三四五六七八九十",
        "PA3MK": "一二三四五六七八九十一二三四五六七八九十一二三四五六七八九十",
        "PA3BD": "20201016",
        "PA3PY": "10",
        "PA3LOC": "05",
        "PA3LOCN": "測試單位",
        "PA3OUT": "05",
        "PA3OUTN": "測試單位",
        "PA3OU": "113",
        "PA3OUN": "測試人員二",
        "PA3UUT": "05",
        "PA3UUTN": "測試單位",
        "PA3UR": "113",
        "PA3URN": "測試人員二",
        "PA308": "N",
        "PA3DEL": "N",
        "PA3PRN": "N"
      }
    ]
  }
}