{
  "MS": {
    "MS01": "A12345678F001",
    "MS02": "1",
    "MS03": "BIG5"
  },
  "ASSETs": {
    "PA3": [
      {
        "PA341": "1",
        "PA342": "1",
        "PA343": "0",
        "PA3C1": "5",
        "PA3C2": "01",
        "PA3C3": "01",
        "PA3C4": "01",
        "PA3C5": "0001",
        "PA3C6": "0000001",
        "PA3P3": "白色時鐘",
        "PA3PS": "特色時鐘",
        "PA3MK": "未來雲",
        "PA3BD": "20200914",
        "PA3PY": "10",
        "PA3LOC": "54320",
        "PA3LOCN": "醫務所",
        "PA3OUT": "54320",
        "PA3OUTN": "醫務所",
        "PA3OU": "23456722",
        "PA3OUN": "李大變",
        "PA3UUT": "54320",
        "PA3UUTN": "醫務所",
        "PA3UR": "2345671",
        "PA3URN": "李大同",
        "PA308": "Y",
        "PA3DEL": "N",
        "PA3PRN": "N"
      },
      {
        "PA341": "1",
        "PA342": "1",
        "PA343": "0",
        "PA3C1": "5",
        "PA3C2": "01",
        "PA3C3": "01",
        "PA3C4": "01",
        "PA3C5": "0002",
        "PA3C6": "0000001",
        "PA3P3": "",
        "PA3PS": "0",
        "PA3MK": "0",
        "PA3BD": "20200914",
        "PA3PY": "3",
        "PA3LOC": "12345",
        "PA3LOCN": "總務室",
        "PA3OUT": "12345",
        "PA3OUTN": "總務室",
        "PA3OU": "2345671",
        "PA3OUN": "李大同",
        "PA3UUT": "12345",
        "PA3UUTN": "總務室",
        "PA3UR": "2345671",
        "PA3URN": "李大同",
        "PA308": "Y",
        "PA3DEL": "N",
        "PA3PRN": "N"
      },
      {
        "PA341": "1",
        "PA342": "1",
        "PA343": "0",
        "PA3C1": "6",
        "PA3C2": "01",
        "PA3C3": "05",
        "PA3C4": "05",
        "PA3C5": "0000",
        "PA3C6": "0000001",
        "PA3P3": "訂書機",
        "PA3PS": "E-260",
        "PA3MK": "ETONA",
        "PA3BD": "39020328",
        "PA3PY": "24",
        "PA3LOC": "05",
        "PA3LOCN": "測試單位",
        "PA3OUT": "05",
        "PA3OUTN": "測試單位",
        "PA3OU": "2345671",
        "PA3OUN": "李大同",
        "PA3UUT": "05",
        "PA3UUTN": "測試單位",
        "PA3UR": "2345671",
        "PA3URN": "李大同",
        "PA308": "Y",
        "PA3DEL": "N",
        "PA3PRN": "N"
      },
      {
        "PA341": "1",
        "PA342": "1",
        "PA343": "0",
        "PA3C1": "5",
        "PA3C2": "01",
        "PA3C3": "01",
        "PA3C4": "01",
        "PA3C5": "0001",
        "PA3C6": "0000023",
        "PA3P3": "時鐘2",
        "PA3PS": "",
        "PA3MK": "",
        "PA3BD": "20200916",
        "PA3PY": "10",
        "PA3LOC": "12345",
        "PA3LOCN": "總務室",
        "PA3OUT": "12345",
        "PA3OUTN": "總務室",
        "PA3OU": "2345671",
        "PA3OUN": "李大同",
        "PA3UUT": "12345",
        "PA3UUTN": "總務室",
        "PA3UR": "2345671",
        "PA3URN": "李大同",
        "PA308": "Y",
        "PA3DEL": "Y",
        "PA3PRN": "N"
      }
    ]
  }
}