{
    "MS": {
        "MS01": "A12345678F001",
        "MS02": "1",
        "MS03": "BIG5"
    },
    "ASSETs": {
        "PA3": [
            {
                "PA341": "1",
                "PA342": "1",
                "PA343": "0",
                "PA3C1": "5",
                "PA3C2": "01",
                "PA3C3": "01",
                "PA3C4": "01",
                "PA3C5": "0001",
                "PA3C6": "0000001",
                "PA3P3": "白色時鐘",
                "PA3PS": "特色時鐘",
                "PA3MK": "未來雲",
                "PA3BD": "20200914",
                "PA3PY": "10",
                "PA3LOC": "54320",
                "PA3LOCN": "醫務所",
                "PA3OUT": "54320",
                "PA3OUTN": "醫務所",
                "PA3OU": "2345671",
                "PA3OUN": "李大同",
                "PA3UUT": "54320",
                "PA3UUTN": "醫務所",
                "PA3UR": "2345671",
                "PA3URN": "李大同",
                "PA308": "Y",
                "PA3DEL": "N",
                "PA3PRN": "N"
            },
            {
                "PA341": "1",
                "PA342": "1",
                "PA343": "0",
                "PA3C1": "5",
                "PA3C2": "01",
                "PA3C3": "01",
                "PA3C4": "01",
                "PA3C5": "0001",
                "PA3C6": "0000002",
                "PA3P3": "",
                "PA3PS": "特色時鐘",
                "PA3MK": "未來雲",
                "PA3BD": "20200914",
                "PA3PY": "10",
                "PA3LOC": "54320",
                "PA3LOCN": "醫務所",
                "PA3OUT": "54320",
                "PA3OUTN": "醫務所",
                "PA3OU": "2345671",
                "PA3OUN": "李大同",
                "PA3UUT": "54320",
                "PA3UUTN": "醫務所",
                "PA3UR": "2345671",
                "PA3URN": "李大同",
                "PA308": "Y",
                "PA3DEL": "N",
                "PA3PRN": "N"
            }
        ]
    }
}